"Nombre";"Telefono";"Entrega";"A cobrar";"Direccion"
"Ana";1566778899;"Paquete 3 pizzas";120;"Valentin Gomez 4733"
"Juan";1566778800;"Pancho y coca";65;"Caseros 3033"
"Pepe";1544778899;"3 empanadas";60;"Direccion desconocida"
